{
    "prepare_queue": {
        "installed": [],
        "uninstalled": []
    },
    "config_munge": {
        "files": {
            "res/xml/config.xml": {
                "parents": {
                    "/*": [
                        {
                            "xml": "<feature name=\"Device\"><param name=\"android-package\" value=\"org.apache.cordova.device.Device\" /></feature>",
                            "count": 1
                        },
                        {
                            "xml": "<feature name=\"SplashScreen\"><param name=\"android-package\" value=\"org.apache.cordova.splashscreen.SplashScreen\" /><param name=\"onload\" value=\"true\" /></feature>",
                            "count": 1
                        },
                        {
                            "xml": "<feature name=\"StatusBar\"><param name=\"android-package\" value=\"org.apache.cordova.statusbar.StatusBar\" /><param name=\"onload\" value=\"true\" /></feature>",
                            "count": 1
                        },
                        {
                            "xml": "<feature name=\"Whitelist\"><param name=\"android-package\" value=\"org.apache.cordova.whitelist.WhitelistPlugin\" /><param name=\"onload\" value=\"true\" /></feature>",
                            "count": 1
                        },
                        {
                            "xml": "<feature name=\"Keyboard\"><param name=\"android-package\" value=\"io.ionic.keyboard.IonicKeyboard\" /><param name=\"onload\" value=\"true\" /></feature>",
                            "count": 1
                        }
                    ]
                }
            }
        }
    },
    "installed_plugins": {
        "cordova-plugin-console": {
            "PACKAGE_NAME": "com.intelliswift.timesheet"
        },
        "cordova-plugin-device": {
            "PACKAGE_NAME": "com.intelliswift.timesheet"
        },
        "cordova-plugin-splashscreen": {
            "PACKAGE_NAME": "com.intelliswift.timesheet"
        },
        "cordova-plugin-statusbar": {
            "PACKAGE_NAME": "com.intelliswift.timesheet"
        },
        "cordova-plugin-whitelist": {
            "PACKAGE_NAME": "com.intelliswift.timesheet"
        },
        "ionic-plugin-keyboard": {
            "PACKAGE_NAME": "com.intelliswift.timesheet"
        }
    },
    "dependent_plugins": {}
}